<svg width="96" height="96" viewBox="0 0 96 96" fill="none" xmlns="http://www.w3.org/2000/svg">
<path fill-rule="evenodd" clip-rule="evenodd" d="M36.0002 64.6798L19.3202 47.9998L13.6602 53.6598L36.0002 75.9998L84.0002 27.9998L78.3402 22.3398L36.0002 64.6798Z" fill="#FFF"/>
</svg>
